*** Darwin 25x10 ***
Turn = 0.
  0123456789
0 ..........
1 ......r...
2 ..........
3 ..........
4 ...r......
5 h......fr.
6 ..........
7 ..........
8 ..........
9 ..........
0 ..........
1 ..........
2 ..........
3 ......f...
4 ..........
5 ..........
6 ..r.......
7 ..........
8 ..h.......
9 r.....h...
0 ..........
1 ..........
2 ..........
3 ..........
4 ....fr....

Turn = 10.
  0123456789
0 h.......r.
1 ..........
2 ..........
3 ..........
4 ..........
5 .......f..
6 ..........
7 .........r
8 ..........
9 ..........
0 ..........
1 ..........
2 ..........
3 ......f..r
4 ..........
5 ....r.....
6 ..........
7 ..........
8 .........h
9 h.........
0 .r........
1 ..........
2 ..........
3 r.........
4 ..r.......

Turn = 20.
  0123456789
0 h.........
1 ..........
2 ..........
3 ..........
4 ..........
5 ....r..f..
6 ..........
7 ..........
8 .........r
9 ..........
0 .r........
1 ..........
2 ..........
3 ......f...
4 ..........
5 ..........
6 ..........
7 .....r...r
8 .....r....
9 r.........
0 r.........
1 ..........
2 .........r
3 ..........
4 ..........

*** Darwin 25x11 ***
Turn = 0.
  01234567890
0 ...........
1 ...........
2 .........h.
3 ...........
4 ...........
5 ...h.......
6 ...........
7 ...........
8 ...........
9 ...........
0 ...........
1 ...........
2 ...........
3 ...........
4 ...........
5 ...........
6 ...........
7 ...........
8 ...........
9 ...........
0 ...........
1 ...........
2 ...........
3 ....r......
4 ...........

Turn = 6.
  01234567890
0 ...........
1 ...........
2 ..........h
3 ...........
4 ...........
5 ...........
6 ...........
7 ...........
8 ...........
9 ...........
0 ...........
1 ...h.......
2 ...........
3 ...........
4 ...........
5 ...........
6 ...........
7 ...........
8 ...........
9 ...........
0 ...........
1 ...........
2 ...........
3 ..........r
4 ...........

Turn = 12.
  01234567890
0 ...........
1 ...........
2 ..........h
3 ...........
4 ...........
5 ...........
6 ...........
7 ...........
8 ...........
9 ...........
0 ...........
1 ...........
2 ...........
3 ...........
4 ...........
5 ...........
6 ...........
7 ...h.......
8 ...........
9 ...........
0 ...........
1 ...........
2 ...........
3 ...........
4 .........r.

Turn = 18.
  01234567890
0 ...........
1 ...........
2 ..........h
3 ...........
4 ...........
5 ...........
6 ...........
7 ...........
8 ...........
9 ...........
0 ...........
1 ...........
2 ...........
3 ...........
4 ...........
5 ...........
6 ...........
7 ...........
8 ...........
9 ...........
0 ...........
1 ...........
2 ...........
3 ...h.......
4 ...r.......

Turn = 24.
  01234567890
0 ...........
1 ...........
2 ..........h
3 ...........
4 ...........
5 ...........
6 ...........
7 ...........
8 ...........
9 ...........
0 ...........
1 ...........
2 ...........
3 ...........
4 ...........
5 ...........
6 ...........
7 ...........
8 ...........
9 ...........
0 ...........
1 ...........
2 r..........
3 ...........
4 ...h.......

*** Darwin 21x11 ***
Turn = 0.
  01234567890
0 ...........
1 ..h........
2 h..........
3 ....r......
4 ...........
5 ...........
6 ...........
7 ...........
8 ...........
9 ...........
0 ...........
1 ...........
2 ...........
3 ...........
4 ...........
5 ...........
6 ...........
7 ........r..
8 ...........
9 ...........
0 ...........

Turn = 7.
  01234567890
0 ..h....r...
1 ...........
2 h..........
3 ...........
4 ...........
5 ...........
6 ...........
7 ...........
8 ...........
9 ...........
0 ........r..
1 ...........
2 ...........
3 ...........
4 ...........
5 ...........
6 ...........
7 ...........
8 ...........
9 ...........
0 ...........

Turn = 14.
  01234567890
0 ..h........
1 ..........r
2 h..........
3 ........r..
4 ...........
5 ...........
6 ...........
7 ...........
8 ...........
9 ...........
0 ...........
1 ...........
2 ...........
3 ...........
4 ...........
5 ...........
6 ...........
7 ...........
8 ...........
9 ...........
0 ...........

*** Darwin 27x30 ***
Turn = 0.
  012345678901234567890123456789
0 ..............................
1 ..............................
2 ..............................
3 ..............................
4 ..............................
5 ....r.........................
6 ....h.........................
7 ..............................
8 ..............................
9 ..............................
0 ..............................
1 ..............................
2 ......................r.......
3 ..............................
4 ..............................
5 ..............................
6 ..............................
7 ..............................
8 ....h.........................
9 ..............................
0 ..............................
1 ..............................
2 ..............................
3 ..............................
4 .......r......................
5 ..............................
6 ..............f...............

Turn = 2.
  012345678901234567890123456789
0 ..............................
1 ..............................
2 ..............................
3 ..............................
4 ..............................
5 ....r.........................
6 .....r........................
7 ..............................
8 ..............................
9 ..............................
0 ..............................
1 ..............................
2 ..............................
3 ..............................
4 ......................r.......
5 ..............................
6 ..............................
7 ..............................
8 ..............................
9 ..............................
0 ....h.........................
1 ..............................
2 ..............................
3 ..............................
4 .....r........................
5 ..............................
6 ..............f...............

Turn = 4.
  012345678901234567890123456789
0 ..............................
1 ..............................
2 ..............................
3 ..............................
4 ..............................
5 ......r.......................
6 .......r......................
7 ..............................
8 ..............................
9 ..............................
0 ..............................
1 ..............................
2 ..............................
3 ..............................
4 ..............................
5 ..............................
6 ......................r.......
7 ..............................
8 ..............................
9 ..............................
0 ..............................
1 ..............................
2 ....h.........................
3 ..............................
4 ...r..........................
5 ..............................
6 ..............f...............

Turn = 6.
  012345678901234567890123456789
0 ..............................
1 ..............................
2 ..............................
3 ..............................
4 ..............................
5 ........r.....................
6 .........r....................
7 ..............................
8 ..............................
9 ..............................
0 ..............................
1 ..............................
2 ..............................
3 ..............................
4 ..............................
5 ..............................
6 ..............................
7 ..............................
8 ......................r.......
9 ..............................
0 ..............................
1 ..............................
2 ..............................
3 ..............................
4 .r..h.........................
5 ..............................
6 ..............f...............

Turn = 8.
  012345678901234567890123456789
0 ..............................
1 ..............................
2 ..............................
3 ..............................
4 ..............................
5 ..........r...................
6 ...........r..................
7 ..............................
8 ..............................
9 ..............................
0 ..............................
1 ..............................
2 ..............................
3 ..............................
4 ..............................
5 ..............................
6 ..............................
7 ..............................
8 ..............................
9 ..............................
0 ......................r.......
1 ..............................
2 ..............................
3 ..............................
4 r.............................
5 ..............................
6 ....h.........f...............

Turn = 10.
  012345678901234567890123456789
0 ..............................
1 ..............................
2 ..............................
3 ..............................
4 ..............................
5 ............r.................
6 .............r................
7 ..............................
8 ..............................
9 ..............................
0 ..............................
1 ..............................
2 ..............................
3 ..............................
4 ..............................
5 ..............................
6 ..............................
7 ..............................
8 ..............................
9 ..............................
0 ..............................
1 ..............................
2 r.....................r.......
3 ..............................
4 ..............................
5 ..............................
6 ....h.........f...............

Turn = 12.
  012345678901234567890123456789
0 ..............................
1 ..............................
2 ..............................
3 ..............................
4 ..............................
5 ..............r...............
6 ...............r..............
7 ..............................
8 ..............................
9 ..............................
0 ..............................
1 ..............................
2 ..............................
3 ..............................
4 ..............................
5 ..............................
6 ..............................
7 ..............................
8 ..............................
9 ..............................
0 r.............................
1 ..............................
2 ..............................
3 ..............................
4 ......................r.......
5 ..............................
6 ....h.........f...............

Turn = 14.
  012345678901234567890123456789
0 ..............................
1 ..............................
2 ..............................
3 ..............................
4 ..............................
5 ................r.............
6 .................r............
7 ..............................
8 ..............................
9 ..............................
0 ..............................
1 ..............................
2 ..............................
3 ..............................
4 ..............................
5 ..............................
6 ..............................
7 ..............................
8 r.............................
9 ..............................
0 ..............................
1 ..............................
2 ..............................
3 ..............................
4 ..............................
5 ..............................
6 ....h.........f.......r.......

*** Darwin 13x29 ***
Turn = 0.
  01234567890123456789012345678
0 .............................
1 .............................
2 .......r.....................
3 .............................
4 .....................r.......
5 .............................
6 .............................
7 .......h.....................
8 .............................
9 .............................
0 .............................
1 .............................
2 .............................

Turn = 10.
  01234567890123456789012345678
0 ..............r..............
1 .............................
2 .............................
3 .............................
4 ...........r.................
5 .............................
6 .............................
7 .................h...........
8 .............................
9 .............................
0 .............................
1 .............................
2 .............................

Turn = 20.
  01234567890123456789012345678
0 ........................r....
1 .............................
2 .............................
3 .............................
4 .r...........................
5 .............................
6 .............................
7 ...........................h.
8 .............................
9 .............................
0 .............................
1 .............................
2 .............................

*** Darwin 10x10 ***
Turn = 0.
  0123456789
0 .....r..r.
1 .ttf......
2 ..........
3 ..........
4 ..t.......
5 .......t..
6 ..f.......
7 f.....h...
8 fr.....h..
9 .r......ht

Turn = 2.
  0123456789
0 ......rr..
1 .ttf......
2 ..........
3 ..........
4 ..t.......
5 .......t..
6 .rf.......
7 f.........
8 f........h
9 ...r..h.ht

Turn = 4.
  0123456789
0 ..........
1 .ttt..r...
2 .......r..
3 ..........
4 .rt.......
5 .......t..
6 ..f.......
7 f.........
8 f........t
9 .....rh.ht

Turn = 6.
  0123456789
0 ..........
1 .ttt......
2 .r........
3 ......r...
4 ..t....t..
5 .......t..
6 ..f.......
7 f.........
8 f........t
9 .....rr.tt

Turn = 8.
  0123456789
0 ..........
1 .rtt......
2 .r........
3 ..........
4 ..t....t..
5 ......tt..
6 ..f.......
7 f.....r...
8 f........t
9 ......r.tt

Turn = 10.
  0123456789
0 ..r.......
1 ..rt......
2 ...r......
3 ..........
4 ..t....t..
5 ......rt..
6 ..f...r...
7 f.........
8 f........t
9 .......rrr

Turn = 12.
  0123456789
0 ...rr.....
1 ..r.......
2 .....r....
3 ......r...
4 ..t...rt..
5 .......t..
6 ..f.......
7 f.........
8 f......r.t
9 ........rr

Turn = 14.
  0123456789
0 ..r...r...
1 ..........
2 .......r..
3 ..r..r....
4 ..t..r.t..
5 .......t..
6 ..f....r..
7 f.........
8 f........t
9 ........rr

Turn = 16.
  0123456789
0 r.......r.
1 ..........
2 .........r
3 ...r......
4 ..rr...r..
5 ..r....r..
6 ..r....r..
7 f.........
8 f........t
9 ........rr

Turn = 18.
  0123456789
0 .........r
1 r........r
2 .......r..
3 .r.r...r..
4 .r........
5 .r........
6 ....r....r
7 f.........
8 f........r
9 ........rr

Turn = 20.
  0123456789
0 .......rr.
1 ...r...r.r
2 r.........
3 r.........
4 r.........
5 r.........
6 ......r...
7 f.......rr
8 f........r
9 .......r..

Turn = 22.
  0123456789
0 ...r..r.r.
1 r.....r...
2 r.r.......
3 r........r
4 ..........
5 ........r.
6 .......r..
7 f........r
8 f.........
9 .....r...r

Turn = 24.
  0123456789
0 rr..r....r
1 r...r.....
2 r...r.....
3 ........r.
4 .......r..
5 .........r
6 ..........
7 f.........
8 f........r
9 ...r.....r

Turn = 26.
  0123456789
0 rrr.......
1 r.r.....r.
2 r.....rr.r
3 ..........
4 ..........
5 ..........
6 ..........
7 f........r
8 f........r
9 .r......r.

Turn = 28.
  0123456789
0 rrr....rr.
1 r.........
2 r.r.......
3 ......r...
4 .........r
5 ..........
6 ..........
7 f........r
8 f......r..
9 r.....r...

*** Darwin 30x21 ***
Turn = 0.
  012345678901234567890
0 .....................
1 .....................
2 .....................
3 .....................
4 ...h...........h.t...
5 .....................
6 ...f.................
7 .....................
8 .....................
9 ............f........
0 .............f.....f.
1 .........t....fr.....
2 .....................
3 .....................
4 .....................
5 ...............r.....
6 .....................
7 .........r...........
8 .....................
9 ...............f.....
0 ...t.................
1 .....................
2 ....................h
3 .....................
4 .....................
5 .....................
6 .....................
7 .....................
8 ....f.............t..
9 .....................

Turn = 2.
  012345678901234567890
0 .....................
1 .....................
2 ...............h.....
3 .....................
4 .....h...........t...
5 .....................
6 ...f.................
7 .....................
8 .....................
9 ............f........
0 .............f.....f.
1 .........t....r......
2 ..............r......
3 .....................
4 .....................
5 .........r.......r...
6 .....................
7 .....................
8 .....................
9 ...............f.....
0 ...t................h
1 .....................
2 .....................
3 .....................
4 .....................
5 .....................
6 .....................
7 .....................
8 ....f.............t..
9 .....................

Turn = 4.
  012345678901234567890
0 ...............h.....
1 .....................
2 .....................
3 .....................
4 .......h.........t...
5 .....................
6 ...f.................
7 .....................
8 .....................
9 ............f........
0 .............f.....f.
1 .........t..r........
2 .....................
3 .........r...........
4 ..............r......
5 ...................r.
6 .....................
7 .....................
8 ....................h
9 ...............f.....
0 ...t.................
1 .....................
2 .....................
3 .....................
4 .....................
5 .....................
6 .....................
7 .....................
8 ....f.............t..
9 .....................

Turn = 6.
  012345678901234567890
0 ...............h.....
1 .....................
2 .....................
3 .....................
4 .........h.......t...
5 .....................
6 ...f.................
7 .....................
8 .....................
9 ............f........
0 .............f.....f.
1 .........rr..........
2 .........r...........
3 .....................
4 .....................
5 ....................r
6 ..............r.....h
7 .....................
8 .....................
9 ...............f.....
0 ...t.................
1 .....................
2 .....................
3 .....................
4 .....................
5 .....................
6 .....................
7 .....................
8 ....f.............t..
9 .....................

Turn = 8.
  012345678901234567890
0 ...............h.....
1 .....................
2 .....................
3 .....................
4 ...........h.....t...
5 .....................
6 ...f.................
7 .....................
8 .....................
9 .........r..f........
0 .............f.....f.
1 ........r............
2 ........r............
3 .....................
4 .....................
5 ....................r
6 ....................r
7 .....................
8 ..............r......
9 ...............f.....
0 ...t.................
1 .....................
2 .....................
3 .....................
4 .....................
5 .....................
6 .....................
7 .....................
8 ....f.............t..
9 .....................

Turn = 10.
  012345678901234567890
0 ...............h.....
1 .....................
2 .....................
3 .....................
4 .............h...t...
5 .....................
6 ...f.................
7 .........r...........
8 .....................
9 ............f........
0 .............f.....f.
1 ......r..............
2 ......r..............
3 .....................
4 .....................
5 ..................r..
6 .....................
7 .....................
8 ....................r
9 ...............f.....
0 ...t..........r......
1 .....................
2 .....................
3 .....................
4 .....................
5 .....................
6 .....................
7 .....................
8 ....f.............t..
9 .....................

Turn = 12.
  012345678901234567890
0 ...............h.....
1 .....................
2 .....................
3 .....................
4 ...............h.t...
5 .........r...........
6 ...f.................
7 .....................
8 .....................
9 ............f........
0 .............f.....f.
1 ....r................
2 ....r................
3 .....................
4 .....................
5 ................r....
6 .....................
7 .....................
8 .....................
9 ...............f.....
0 ...t................r
1 .....................
2 ..............r......
3 .....................
4 .....................
5 .....................
6 .....................
7 .....................
8 ....f.............t..
9 .....................

Turn = 14.
  012345678901234567890
0 ...............h.....
1 .....................
2 .....................
3 .........r...........
4 ................ht...
5 .....................
6 ...f.................
7 .....................
8 .....................
9 ............f........
0 .............f.....f.
1 ..r..................
2 ..r..................
3 .....................
4 .....................
5 ..............r......
6 .....................
7 .....................
8 .....................
9 ...............f.....
0 ...t.................
1 .....................
2 ....................r
3 .....................
4 ..............r......
5 .....................
6 .....................
7 .....................
8 ....f.............t..
9 .....................

*** Darwin 21x18 ***
Turn = 0.
  012345678901234567
0 ..................
1 ..................
2 ..................
3 .....h............
4 ................t.
5 ..................
6 t...........f.....
7 ..................
8 ....r........r....
9 t.................
0 ....t.............
1 ......rhr......f.t
2 ................h.
3 ..................
4 ..................
5 .............h....
6 ..........r.f.....
7 .....f............
8 ..................
9 ..................
0 ..................

Turn = 9.
  012345678901234567
0 ....r.............
1 ..................
2 ..................
3 .......r......h...
4 ......r.........t.
5 ..................
6 t...........f.....
7 ..........r..h....
8 ....r.............
9 t.................
0 ....t.............
1 ...............f.t
2 .......h..........
3 ..................
4 ..................
5 ..................
6 ............f.....
7 .....f............
8 ..................
9 ..................
0 ........r.........

*** Darwin 30x16 ***
Turn = 0.
  0123456789012345
0 ................
1 ................
2 ................
3 ................
4 ....t...........
5 ................
6 ................
7 ................
8 ................
9 ................
0 ................
1 ...r............
2 ................
3 ................
4 ................
5 ................
6 h...............
7 ................
8 .h..............
9 ................
0 ................
1 ................
2 ................
3 .....t..........
4 ................
5 .t..............
6 ................
7 ................
8 ................
9 ....r...........

Turn = 7.
  0123456789012345
0 ................
1 ................
2 ................
3 ................
4 ....t...........
5 ................
6 ................
7 ................
8 ................
9 ................
0 ................
1 ..........r.....
2 ................
3 ................
4 ................
5 ................
6 h...............
7 ................
8 ................
9 ................
0 ................
1 ................
2 ....r...........
3 .....t..........
4 .h..............
5 .t..............
6 ................
7 ................
8 ................
9 ................

*** Darwin 10x24 ***
Turn = 0.
  012345678901234567890123
0 .............h..........
1 ..............h.........
2 .....................f..
3 ....r...................
4 .....h.....f............
5 h.....h.................
6 ..rr....................
7 ....fr................f.
8 ..r.........f...........
9 .h......th..............

Turn = 9.
  012345678901234567890123
0 .....r.......h..........
1 .......................h
2 .....................f..
3 .............r..........
4 .r........hf............
5 r.......................
6 r.......................
7 .....r................f.
8 ........t...f...........
9 ....rr..tt..............

